<?xml version="1.0" encoding="UTF-8" standalone="no"?>
<svg
   width="1920px"
   height="1080px"
   viewBox="0 0 1920 1080"
   version="1.1"
   id="SVGRoot"
   inkscape:version="1.1 (c68e22c387, 2021-05-23)"
   sodipodi:docname="brain-app-container.svg"
   inkscape:export-filename="/home/sam/gitlab/software-containers-animation/png/10_brain-app-container.png"
   inkscape:export-xdpi="96"
   inkscape:export-ydpi="96"
   xmlns:inkscape="http://www.inkscape.org/namespaces/inkscape"
   xmlns:sodipodi="http://sodipodi.sourceforge.net/DTD/sodipodi-0.dtd"
   xmlns="http://www.w3.org/2000/svg"
   xmlns:svg="http://www.w3.org/2000/svg"
   xmlns:rdf="http://www.w3.org/1999/02/22-rdf-syntax-ns#"
   xmlns:cc="http://creativecommons.org/ns#"
   xmlns:dc="http://purl.org/dc/elements/1.1/">
  <style
     id="style845" />
  <defs
     id="defs2">
    <rect
       x="404.7372"
       y="973.48197"
       width="1103.3963"
       height="88.311942"
       id="rect30016" />
    <marker
       style="overflow:visible"
       id="Arrow1Lstart"
       refX="0.0"
       refY="0.0"
       orient="auto"
       inkscape:stockid="Arrow1Lstart"
       inkscape:isstock="true">
      <path
         transform="scale(0.8) translate(12.5,0)"
         style="fill-rule:evenodd;fill:context-stroke;stroke:context-stroke;stroke-width:1.0pt"
         d="M 0.0,0.0 L 5.0,-5.0 L -12.5,0.0 L 5.0,5.0 L 0.0,0.0 z "
         id="path3741" />
    </marker>
    <rect
       x="404.7372"
       y="973.48197"
       width="238.74974"
       height="115.91604"
       id="rect32632" />
  </defs>
  <sodipodi:namedview
     inkscape:window-maximized="1"
     inkscape:window-y="30"
     inkscape:window-x="0"
     inkscape:window-height="1017"
     inkscape:window-width="1920"
     id="base"
     pagecolor="#ffffff"
     bordercolor="#666666"
     borderopacity="0.49803922"
     inkscape:pageopacity="0.10196078"
     inkscape:pageshadow="2"
     inkscape:zoom="0.96524771"
     inkscape:cx="989.90134"
     inkscape:cy="608.65205"
     inkscape:document-units="px"
     inkscape:current-layer="layer1"
     inkscape:document-rotation="0"
     showgrid="false"
     units="px"
     inkscape:pagecheckerboard="false"
     inkscape:snap-nodes="true"
     inkscape:snap-bbox="false"
     inkscape:bbox-paths="false"
     inkscape:bbox-nodes="true"
     inkscape:snap-bbox-midpoints="false"
     inkscape:snap-object-midpoints="true"
     inkscape:snap-others="true"
     inkscape:object-paths="true"
     inkscape:snap-bbox-edge-midpoints="true"
     showguides="false"
     inkscape:object-nodes="true"
     inkscape:snap-smooth-nodes="true"
     inkscape:snap-global="true"
     inkscape:snap-intersection-paths="true">
    <inkscape:grid
       type="xygrid"
       id="grid833"
       empcolor="#215ae3"
       empopacity="0.32156863"
       color="#0f9ff1"
       opacity="0.21176471"
       dotted="false"
       spacingy="80"
       spacingx="80"
       empspacing="3"
       enabled="false" />
    <inkscape:grid
       type="xygrid"
       id="grid46969"
       spacingx="6"
       spacingy="6" />
    <sodipodi:guide
       position="669.51077,641.32967"
       orientation="0,1"
       id="guide54313"
       inkscape:label=""
       inkscape:locked="false"
       inkscape:color="rgb(0,0,255)" />
    <sodipodi:guide
       position="1059.5975,845.91405"
       orientation="-1,0"
       id="guide54315"
       inkscape:label=""
       inkscape:locked="false"
       inkscape:color="rgb(0,0,255)" />
    <sodipodi:guide
       position="669.51092,447.67033"
       orientation="0,1"
       id="guide54317"
       inkscape:label=""
       inkscape:locked="false"
       inkscape:color="rgb(0,0,255)" />
    <sodipodi:guide
       position="860.17003,831.989"
       orientation="-1,0"
       id="guide54319"
       inkscape:label=""
       inkscape:locked="false"
       inkscape:color="rgb(0,0,255)" />
    <sodipodi:guide
       position="669.51092,441.67033"
       orientation="0,1"
       id="guide54511"
       inkscape:label=""
       inkscape:locked="false"
       inkscape:color="rgb(0,0,255)" />
    <sodipodi:guide
       position="1053.5975,845.91405"
       orientation="-1,0"
       id="guide54627"
       inkscape:label=""
       inkscape:locked="false"
       inkscape:color="rgb(0,0,255)" />
    <sodipodi:guide
       position="866.17003,831.989"
       orientation="-1,0"
       id="guide54667"
       inkscape:label=""
       inkscape:locked="false"
       inkscape:color="rgb(0,0,255)" />
    <sodipodi:guide
       position="669.51077,635.32967"
       orientation="0,1"
       id="guide54821"
       inkscape:label=""
       inkscape:locked="false"
       inkscape:color="rgb(0,0,255)" />
  </sodipodi:namedview>
  <metadata
     id="metadata5">
    <rdf:RDF>
      <cc:Work
         rdf:about="">
        <dc:format>image/svg+xml</dc:format>
        <dc:type
           rdf:resource="http://purl.org/dc/dcmitype/StillImage" />
      </cc:Work>
    </rdf:RDF>
  </metadata>
  <g
     inkscape:groupmode="layer"
     id="layer4"
     inkscape:label="bg"
     sodipodi:insensitive="true">
    <rect
       style="fill:#ffffff;stroke:none;stroke-width:6.01156;stroke-linecap:round;stroke-linejoin:round"
       id="rect1780"
       width="1920"
       height="1080"
       x="0"
       y="0"
       ry="6.0245275"
       inkscape:export-filename="/home/sam/gitlab/software-containers-animation/png/app-tetris-transition_02.png"
       inkscape:export-xdpi="96"
       inkscape:export-ydpi="96" />
  </g>
  <g
     inkscape:label="Layer 1"
     inkscape:groupmode="layer"
     id="layer1">
    <path
       style="fill:#545454;fill-opacity:1;stroke:#000000;stroke-width:6;stroke-linecap:round;stroke-linejoin:round;stroke-miterlimit:4;stroke-dasharray:none;stroke-opacity:1"
       d="m 669.511,828.989 -3e-4,-580.978 h 580.978 l 3e-4,580.592 z"
       id="path947"
       sodipodi:nodetypes="ccccc"
       inkscape:export-filename="/home/sam/gitlab/software-containers-animation/ignore/container.png"
       inkscape:export-xdpi="96"
       inkscape:export-ydpi="96" />
    <g
       id="g3370"
       transform="translate(-383.575,383.575)">
      <path
         style="fill:#ebdfec;fill-opacity:1;stroke:#ab7cb3;stroke-width:6;stroke-linecap:butt;stroke-linejoin:round;stroke-miterlimit:4;stroke-dasharray:none;stroke-opacity:1"
         d="m 1059.0857,254.75467 184.6593,0 0.744,184.65933 h -185.403 z"
         id="path7337"
         sodipodi:nodetypes="ccccc" />
      <g
         id="g2212"
         transform="translate(-7.5178)">
        <g
           id="g13347"
           transform="translate(-16,-358)">
          <path
             id="rect1215"
             style="fill:none;fill-opacity:0.99;stroke:#000000;stroke-width:6;stroke-linecap:round;stroke-linejoin:round;stroke-opacity:0.984314"
             d="m 1123.0003,671.8294 c 0,-5.09588 4.5554,-8.8294 8.8294,-8.8294 h 90.9512 c 5.4839,0 8.8304,3.59638 8.8294,8.8294 l -0,10.14948 -0,66.14943 H 1123 l 10e-5,-66.14943 z"
             sodipodi:nodetypes="ssssccccs" />
          <circle
             style="fill:#000000;fill-opacity:1;stroke:none;stroke-width:3;stroke-linecap:round;stroke-linejoin:round;stroke-miterlimit:4;stroke-dasharray:none;stroke-opacity:1"
             id="path1221"
             cx="1219"
             cy="673"
             r="3" />
          <circle
             style="fill:#000000;fill-opacity:1;stroke:none;stroke-width:3;stroke-linecap:round;stroke-linejoin:round;stroke-miterlimit:4;stroke-dasharray:none;stroke-opacity:1"
             id="circle1227"
             cx="1209"
             cy="673"
             r="3" />
          <circle
             style="fill:#000000;fill-opacity:1;stroke:none;stroke-width:3;stroke-linecap:round;stroke-linejoin:round;stroke-miterlimit:4;stroke-dasharray:none;stroke-opacity:1"
             id="circle1229"
             cx="1199"
             cy="673"
             r="3" />
          <path
             style="fill:none;fill-opacity:0.99;stroke:#000000;stroke-width:6;stroke-linecap:round;stroke-linejoin:round;stroke-opacity:0.984314"
             d="m 1131,681.97888 h 92.6065"
             id="rect1231"
             sodipodi:nodetypes="cc" />
        </g>
      </g>
    </g>
    <path
       style="fill:#ab7cb3;stroke:#8e489b;stroke-width:6;stroke-linecap:butt;stroke-linejoin:round;stroke-miterlimit:4;stroke-dasharray:none;stroke-opacity:1"
       d="M 1053.5975,444.67033 H 675.5107 v 187.65934 h 190.65933 l 0.74397,190.65933 377.575,-0.386 0.2983,-184.27333 h -191.1898 z"
       id="path7359"
       sodipodi:nodetypes="ccccccccc" />
    <g
       id="g3360"
       transform="translate(383.5747,-191.787)">
      <path
         style="fill:#ebdfec;fill-opacity:1;stroke:#ab7cb3;stroke-width:6;stroke-linecap:butt;stroke-linejoin:round;stroke-miterlimit:4;stroke-dasharray:none;stroke-opacity:1"
         d="M 676.0228,445.798 H 860.914 V 824.11667 H 676.0228 Z"
         id="path7311"
         sodipodi:nodetypes="ccccc" />
      <g
         id="g13026"
         transform="translate(0.2125,-15.646535)">
        <circle
           style="fill:none;fill-opacity:0.9;stroke:#000000;stroke-width:6;stroke-linecap:round;stroke-linejoin:round;stroke-miterlimit:4;stroke-dasharray:none;stroke-dashoffset:0"
           id="path1364-3"
           cx="780"
           cy="555"
           r="9" />
        <path
           style="fill:none;stroke:#000000;stroke-width:6;stroke-linecap:round;stroke-linejoin:round;stroke-miterlimit:4;stroke-dasharray:none;stroke-opacity:1"
           d="M 785.78446,588.21554 798,576 l 16.34195,16.34195"
           id="path1274-6"
           sodipodi:nodetypes="ccc" />
        <rect
           style="fill:none;fill-opacity:0.9;stroke:#000000;stroke-width:6;stroke-linecap:round;stroke-linejoin:round;stroke-miterlimit:4;stroke-dasharray:none;stroke-dashoffset:0"
           id="rect986-7"
           width="107.80508"
           height="84.08007"
           x="714"
           y="528" />
        <path
           style="fill:none;stroke:#000000;stroke-width:6;stroke-linecap:round;stroke-linejoin:round;stroke-miterlimit:4;stroke-dasharray:none;stroke-opacity:1"
           d="M 722.26962,591.73038 750,564 l 38.83789,38.83789"
           id="path1123-5"
           sodipodi:nodetypes="ccc" />
      </g>
      <g
         id="g12194"
         transform="translate(0.2125,-15.646535)"
         style="stroke:#000000">
        <g
           id="g12966"
           style="stroke:#000000"
           transform="translate(0,100)">
          <path
             style="opacity:1;fill:none;stroke:#000000;stroke-width:6;stroke-linecap:round;stroke-linejoin:round;stroke-miterlimit:4;stroke-dasharray:none;stroke-opacity:1"
             d="m 726,650.99987 v 0 m 0,-6 h 6 m 0,-6 h 6 m 0,-6 h 6 m 0,-6 h 12 m -6,-6 v 0 m 6,12 h 6 m 0,6 h 6 m 0,6 h 6 m 0,6 h 6 m 0,6 h 6 m 0,6 h 6"
             id="path956"
             sodipodi:nodetypes="cccccccccccccccccccccccc" />
          <path
             style="opacity:1;fill:none;stroke:#000000;stroke-width:6;stroke-linecap:round;stroke-linejoin:round;stroke-miterlimit:4;stroke-dasharray:none;stroke-opacity:1"
             d="m 786,644.99987 v 0 m 6,0 v -6 m 6,0 v -6 m 6,6 v 6 m 6,0 v 6"
             id="path958"
             sodipodi:nodetypes="cccccccccc" />
          <path
             id="circle960"
             style="opacity:1;fill:none;fill-opacity:0.9;stroke:#000000;stroke-width:6;stroke-linecap:round;stroke-linejoin:round"
             d="m 777,606 h 6 m 6,6 v 6 m -6,6 h -6 m -6,-6 v -6"
             sodipodi:nodetypes="cccccccc" />
          <rect
             style="fill:none;fill-opacity:0.9;stroke:#000000;stroke-width:6;stroke-linecap:round;stroke-linejoin:round;stroke-miterlimit:4;stroke-dasharray:none;stroke-dashoffset:0"
             id="rect12062"
             width="107.80508"
             height="84.08007"
             x="714"
             y="588" />
        </g>
      </g>
      <g
         id="g13354"
         transform="translate(-11.7875,1.9999998)">
        <g
           id="g10990"
           transform="translate(0,-2.6064324)">
          <path
             style="fill:none;stroke:#000000;stroke-width:6;stroke-linecap:round;stroke-linejoin:miter;stroke-miterlimit:4;stroke-dasharray:none;stroke-opacity:1"
             d="m 780,612 v 35"
             id="path13079"
             sodipodi:nodetypes="cc" />
          <path
             style="fill:none;stroke:#000000;stroke-width:6;stroke-linecap:round;stroke-linejoin:round;stroke-miterlimit:4;stroke-dasharray:none;stroke-opacity:1"
             d="m 762,640 18,18 18,-18"
             id="path13147"
             sodipodi:nodetypes="ccc" />
        </g>
      </g>
    </g>
    <g
       id="g1102"
       transform="translate(189.78756)">
      <path
         style="fill:#ebdfec;fill-opacity:1;stroke:#ab7cb3;stroke-width:6;stroke-linecap:butt;stroke-linejoin:round;stroke-miterlimit:4;stroke-dasharray:none;stroke-opacity:1"
         d="m 485.72314,254.011 h 184.65933 l 0,184.65933 -184.65933,0 z"
         id="path7317"
         sodipodi:nodetypes="ccccc" />
      <g
         id="g44756"
         transform="translate(-0.28058,40.000006)">
        <path
           style="fill:none;stroke:#000000;stroke-width:6;stroke-linecap:round;stroke-linejoin:miter;stroke-miterlimit:4;stroke-dasharray:none;stroke-opacity:1"
           d="m 592.07991,306.71252 h 45.25164"
           id="path897"
           sodipodi:nodetypes="cc" />
        <path
           style="fill:none;stroke:#8e489b;stroke-width:6;stroke-linecap:round;stroke-linejoin:miter;stroke-miterlimit:4;stroke-dasharray:none;stroke-opacity:1"
           d="m 520.07991,306.71252 h 47.25164"
           id="path899"
           sodipodi:nodetypes="cc" />
        <circle
           style="fill:#ffffff;fill-opacity:0.99;stroke:#000000;stroke-width:6;stroke-linecap:round;stroke-linejoin:round;stroke-miterlimit:4;stroke-dasharray:none;stroke-opacity:0.984314"
           id="path895"
           cx="565.36414"
           cy="306.71249"
           r="22.556305" />
      </g>
    </g>
    <g
       id="g1114"
       transform="translate(-383.5743,-191.787)">
      <path
         style="fill:#ebdfec;fill-opacity:1;stroke:#ab7cb3;stroke-width:6;stroke-linecap:butt;stroke-linejoin:round;stroke-miterlimit:4;stroke-dasharray:none;stroke-opacity:1"
         d="m 1249.7443,445.798 h 187.4275 l 0,184.65933 -187.4275,0 z"
         id="path7339"
         sodipodi:nodetypes="ccccc" />
      <g
         id="g1107">
        <path
           id="rect1008"
           style="fill:none;fill-opacity:0.99;stroke:#000000;stroke-width:6;stroke-linecap:round;stroke-linejoin:round"
           d="m 1329.1906,578.75677 h -28.7679 v -39.84185 h 28.7679"
           sodipodi:nodetypes="cccc" />
        <path
           id="rect1012"
           style="fill:none;fill-opacity:0.99;stroke:#000000;stroke-width:6;stroke-linecap:round;stroke-linejoin:round"
           d="m 1329.1906,570.75681 v -19.84189 m 0,-8 v -44.67273 h 28.7678 v 26.00052 m 0,8 v 38.5141 m 0,8 h -28.7678"
           sodipodi:nodetypes="cccccccccc" />
        <path
           id="rect1014"
           style="fill:none;fill-opacity:0.99;stroke:#000000;stroke-width:6;stroke-linecap:round;stroke-linejoin:round"
           d="m 1357.9584,520.84967 h 28.7678 v 57.90697 h -28.7678"
           sodipodi:nodetypes="cccc" />
      </g>
    </g>
    <g
       id="g931"
       transform="matrix(0.26767219,0,0,0.26767219,562.65585,491.27951)"
       style="stroke:#ffffff;stroke-width:22.4155;stroke-miterlimit:4;stroke-dasharray:none;stroke-opacity:1">
      <path
         style="fill:none;stroke:#ffffff;stroke-width:22.4155;stroke-linecap:round;stroke-linejoin:round;stroke-miterlimit:4;stroke-dasharray:none;stroke-opacity:1"
         d="m 1640,630.66666 c -21.0748,24.16449 -37.4273,34.31455 -66.6667,38.66667 -36.9561,4.67687 -61.4679,-33.56779 -89.3333,-36.76934"
         id="path5299"
         sodipodi:nodetypes="ccc" />
      <path
         style="fill:none;stroke:#ffffff;stroke-width:22.4155;stroke-linecap:round;stroke-linejoin:round;stroke-miterlimit:4;stroke-dasharray:none;stroke-opacity:1"
         d="m 1581.3333,554.66666 c -9.9204,12.80314 -24.3688,25.13815 -38.6667,32"
         id="path5297"
         sodipodi:nodetypes="cc" />
      <path
         style="fill:none;stroke:#ffffff;stroke-width:22.4155;stroke-linecap:round;stroke-linejoin:round;stroke-miterlimit:4;stroke-dasharray:none;stroke-opacity:1"
         d="m 1486.6667,481.33333 c 12.4974,-4.13493 20.4013,-11.6538 33.3333,-16"
         id="path5291"
         sodipodi:nodetypes="cc" />
      <path
         id="path5287"
         style="fill:none;stroke:#ffffff;stroke-width:22.4155;stroke-linecap:round;stroke-linejoin:round;stroke-miterlimit:4;stroke-dasharray:none;stroke-opacity:1"
         d="m 1577.3333,452 c -10.1276,35.26607 -14.3878,67.69092 2.8545,98.69969 C 1590,565 1605,570 1620,569.33333"
         sodipodi:nodetypes="ccc" />
      <path
         style="fill:none;stroke:#ffffff;stroke-width:22.4155;stroke-linecap:round;stroke-linejoin:round;stroke-miterlimit:4;stroke-dasharray:none;stroke-opacity:1"
         d="m 1600.1151,337.7929 c 0,5 -0.5831,7.5191 -6.7818,22.2071"
         id="path5281"
         sodipodi:nodetypes="cc" />
      <path
         style="fill:none;stroke:#ffffff;stroke-width:22.4155;stroke-linecap:round;stroke-linejoin:round;stroke-miterlimit:4;stroke-dasharray:none;stroke-opacity:1"
         d="M 1537.3333,338.66667 C 1535,370 1544.4753,441.90138 1580,448.66 c 13.0629,-2.92545 25.4004,-12.32518 36,-17.99333"
         id="path5277"
         sodipodi:nodetypes="ccc" />
      <path
         style="fill:none;stroke:#ffffff;stroke-width:22.4155;stroke-linecap:round;stroke-linejoin:round;stroke-miterlimit:4;stroke-dasharray:none;stroke-opacity:1"
         d="m 1486.6666,280 c 20.9363,-14.00884 37.7002,-17.57192 64,-9.63466 31.6013,13.81789 39.7125,32.5145 47.8,61.628 4.1862,13.21668 11.7865,5.41089 22.2467,17.48399 27.4446,34.27494 44.6632,79.03853 55.0853,117.18934 4.2014,13.33333 9.2837,31.76605 2.868,43.99999"
         id="path5275"
         sodipodi:nodetypes="cccccc" />
      <path
         style="fill:none;stroke:#ffffff;stroke-width:22.4155;stroke-linecap:round;stroke-linejoin:round;stroke-miterlimit:4;stroke-dasharray:none;stroke-opacity:1"
         d="m 1484.4426,281.33334 v 489.08798 c 4.4427,8.19848 17.0805,19.71771 20.896,21.58534 33.7515,16.5209 82.1979,4.69555 110.6654,-9.684 31.548,-16.276 56.3293,-45.71333 69.3333,-78.32267 16.5499,-47.13009 27.2744,-105.70189 9.744,-149.33333 -4.9168,-11.82142 -12.2533,-40.43264 -19.2507,-43.62933 C 1662.5751,504.98166 1648.658,498.68036 1637.3373,492"
         id="path5271"
         sodipodi:nodetypes="ccscccsc" />
      <path
         style="fill:none;stroke:#ffffff;stroke-width:22.4155;stroke-linecap:round;stroke-linejoin:round;stroke-miterlimit:4;stroke-dasharray:none;stroke-opacity:1"
         d="m 1573.3333,669.33333 c 4.704,17.91959 -3.8402,54.91561 -20,68"
         id="path875"
         sodipodi:nodetypes="cc" />
      <path
         style="fill:none;stroke:#ffffff;stroke-width:22.4155;stroke-linecap:round;stroke-linejoin:round;stroke-miterlimit:4;stroke-dasharray:none;stroke-opacity:1"
         d="m 1328.8852,630.66666 c 21.0748,24.16449 37.4273,34.31455 66.6667,38.66667 36.9561,4.67687 61.4679,-33.56779 89.3333,-36.76934"
         id="path877"
         sodipodi:nodetypes="ccc" />
      <path
         style="fill:none;stroke:#ffffff;stroke-width:22.4155;stroke-linecap:round;stroke-linejoin:round;stroke-miterlimit:4;stroke-dasharray:none;stroke-opacity:1"
         d="m 1387.5519,554.66666 c 9.9204,12.80314 24.3688,25.13815 38.6667,32"
         id="path879"
         sodipodi:nodetypes="cc" />
      <path
         style="fill:none;stroke:#ffffff;stroke-width:22.4155;stroke-linecap:round;stroke-linejoin:round;stroke-miterlimit:4;stroke-dasharray:none;stroke-opacity:1"
         d="m 1482.2185,481.33333 c -12.4974,-4.13493 -20.4013,-11.6538 -33.3333,-16"
         id="path881"
         sodipodi:nodetypes="cc" />
      <path
         id="path883"
         style="fill:none;stroke:#ffffff;stroke-width:22.4155;stroke-linecap:round;stroke-linejoin:round;stroke-miterlimit:4;stroke-dasharray:none;stroke-opacity:1"
         d="m 1391.5519,452 c 10.1276,35.26607 14.3878,67.69092 -2.8545,98.69969 C 1378.8852,565 1363.8852,570 1348.8852,569.33333"
         sodipodi:nodetypes="ccc" />
      <path
         style="fill:none;stroke:#ffffff;stroke-width:22.4155;stroke-linecap:round;stroke-linejoin:round;stroke-miterlimit:4;stroke-dasharray:none;stroke-opacity:1"
         d="m 1368.7701,337.7929 c 0,5 0.5831,7.5191 6.7818,22.2071"
         id="path885"
         sodipodi:nodetypes="cc" />
      <path
         style="fill:none;stroke:#ffffff;stroke-width:22.4155;stroke-linecap:round;stroke-linejoin:round;stroke-miterlimit:4;stroke-dasharray:none;stroke-opacity:1"
         d="m 1431.5519,338.66667 c 2.3333,31.33333 -7.142,103.23471 -42.6667,109.99333 -13.0629,-2.92545 -25.4004,-12.32518 -36,-17.99333"
         id="path887"
         sodipodi:nodetypes="ccc" />
      <path
         style="fill:none;stroke:#ffffff;stroke-width:22.4155;stroke-linecap:round;stroke-linejoin:round;stroke-miterlimit:4;stroke-dasharray:none;stroke-opacity:1"
         d="m 1482.2186,280 c -20.9363,-14.00884 -37.7002,-17.57192 -64,-9.63466 -31.6013,13.81789 -39.7125,32.5145 -47.8,61.628 -4.1862,13.21668 -11.7865,5.41089 -22.2467,17.48399 -27.4446,34.27494 -44.6632,79.03853 -55.0853,117.18934 -4.2014,13.33333 -9.2837,31.76605 -2.868,43.99999"
         id="path889"
         sodipodi:nodetypes="cccccc" />
      <path
         style="fill:none;stroke:#ffffff;stroke-width:22.4155;stroke-linecap:round;stroke-linejoin:round;stroke-miterlimit:4;stroke-dasharray:none;stroke-opacity:1"
         d="m 1484.4426,281.33334 v 489.08798 c -4.4427,8.19848 -17.0805,19.71771 -20.896,21.58534 -33.7515,16.5209 -82.1979,4.69555 -110.6654,-9.684 -31.548,-16.276 -56.3293,-45.71333 -69.3333,-78.32267 -16.5499,-47.13009 -27.2744,-105.70189 -9.744,-149.33333 4.9168,-11.82142 12.2533,-40.43264 19.2507,-43.62933 13.2555,-6.05567 27.1726,-12.35697 38.4933,-19.03733"
         id="path891"
         sodipodi:nodetypes="ccscccsc" />
      <path
         style="fill:none;stroke:#ffffff;stroke-width:22.4155;stroke-linecap:round;stroke-linejoin:round;stroke-miterlimit:4;stroke-dasharray:none;stroke-opacity:1"
         d="m 1395.5519,669.33333 c -4.704,17.91959 3.8402,54.91561 20,68"
         id="path893"
         sodipodi:nodetypes="cc" />
    </g>
    <g
       id="g94598">
      <path
         style="color:#000000;fill:#8e489b;stroke-width:12;stroke-linecap:round;-inkscape-stroke:none"
         d="m 1084.0002,541.69896 h -56"
         id="path75820" />
      <path
         style="color:#000000;fill:#8e489b;stroke-width:6;stroke-linecap:round;-inkscape-stroke:none"
         d="m 1069.9,538.49996 h -28"
         id="path6189" />
      <circle
         style="display:inline;fill:#8e489b;fill-opacity:1;stroke:none;stroke-width:12;stroke-linecap:round;stroke-linejoin:round;stroke-miterlimit:4;stroke-dasharray:none;stroke-dashoffset:0;stroke-opacity:1"
         id="circle6185"
         cx="538.5"
         cy="1073.8999"
         r="6"
         transform="matrix(0,1,1,0,0,0)" />
      <circle
         style="display:inline;fill:#ebdfec;fill-opacity:1;stroke:none;stroke-width:12;stroke-linecap:round;stroke-linejoin:round;stroke-miterlimit:4;stroke-dasharray:none;stroke-dashoffset:0;stroke-opacity:1"
         id="circle6187"
         cx="532.49994"
         cy="1041.9"
         r="6"
         transform="matrix(0,1,1,0,0,0)" />
      <path
         style="fill:none;fill-opacity:1;stroke:#8e489b;stroke-width:6;stroke-linecap:butt;stroke-linejoin:round;stroke-miterlimit:4;stroke-dasharray:none;stroke-opacity:1"
         d="M 1053.0002,538.49996 H 1069.9"
         id="path55874"
         sodipodi:nodetypes="cc" />
      <path
         style="fill:none;fill-opacity:1;stroke:#ebdfec;stroke-width:6;stroke-linecap:butt;stroke-linejoin:round;stroke-miterlimit:4;stroke-dasharray:none;stroke-opacity:1"
         d="m 1063,532.49996 h -21.1"
         id="path61822"
         sodipodi:nodetypes="cc" />
    </g>
    <g
       id="g94612"
       transform="rotate(-90,961.03196,537.57477)">
      <path
         style="color:#000000;fill:#8e489b;stroke-width:12;stroke-linecap:round;-inkscape-stroke:none"
         d="m 1084.0002,541.69896 h -56"
         id="path94600" />
      <path
         style="color:#000000;fill:#8e489b;stroke-width:6;stroke-linecap:round;-inkscape-stroke:none"
         d="m 1069.9,538.49996 h -28"
         id="path94602" />
      <circle
         style="display:inline;fill:#8e489b;fill-opacity:1;stroke:none;stroke-width:12;stroke-linecap:round;stroke-linejoin:round;stroke-miterlimit:4;stroke-dasharray:none;stroke-dashoffset:0;stroke-opacity:1"
         id="circle94604"
         cx="538.5"
         cy="1073.8999"
         r="6"
         transform="matrix(0,1,1,0,0,0)" />
      <circle
         style="display:inline;fill:#ebdfec;fill-opacity:1;stroke:none;stroke-width:12;stroke-linecap:round;stroke-linejoin:round;stroke-miterlimit:4;stroke-dasharray:none;stroke-dashoffset:0;stroke-opacity:1"
         id="circle94606"
         cx="532.49994"
         cy="1041.9"
         r="6"
         transform="matrix(0,1,1,0,0,0)" />
      <path
         style="fill:none;fill-opacity:1;stroke:#8e489b;stroke-width:6;stroke-linecap:butt;stroke-linejoin:round;stroke-miterlimit:4;stroke-dasharray:none;stroke-opacity:1"
         d="M 1053.0002,538.49996 H 1069.9"
         id="path94608"
         sodipodi:nodetypes="cc" />
      <path
         style="fill:none;fill-opacity:1;stroke:#ebdfec;stroke-width:6;stroke-linecap:butt;stroke-linejoin:round;stroke-miterlimit:4;stroke-dasharray:none;stroke-opacity:1"
         d="m 1063,532.49996 h -21.1"
         id="path94610"
         sodipodi:nodetypes="cc" />
    </g>
    <g
       id="g94706"
       transform="rotate(-90,865.1597,633.44703)">
      <path
         style="color:#000000;fill:#8e489b;stroke-width:12;stroke-linecap:round;-inkscape-stroke:none"
         d="m 1084.0002,541.69896 h -56"
         id="path94694" />
      <path
         style="color:#000000;fill:#8e489b;stroke-width:6;stroke-linecap:round;-inkscape-stroke:none"
         d="m 1069.9,538.49996 h -28"
         id="path94696" />
      <circle
         style="display:inline;fill:#8e489b;fill-opacity:1;stroke:none;stroke-width:12;stroke-linecap:round;stroke-linejoin:round;stroke-miterlimit:4;stroke-dasharray:none;stroke-dashoffset:0;stroke-opacity:1"
         id="circle94698"
         cx="538.5"
         cy="1073.8999"
         r="6"
         transform="matrix(0,1,1,0,0,0)" />
      <circle
         style="display:inline;fill:#ebdfec;fill-opacity:1;stroke:none;stroke-width:12;stroke-linecap:round;stroke-linejoin:round;stroke-miterlimit:4;stroke-dasharray:none;stroke-dashoffset:0;stroke-opacity:1"
         id="circle94700"
         cx="532.49994"
         cy="1041.9"
         r="6"
         transform="matrix(0,1,1,0,0,0)" />
      <path
         style="fill:none;fill-opacity:1;stroke:#8e489b;stroke-width:6;stroke-linecap:butt;stroke-linejoin:round;stroke-miterlimit:4;stroke-dasharray:none;stroke-opacity:1"
         d="M 1053.0002,538.49996 H 1069.9"
         id="path94702"
         sodipodi:nodetypes="cc" />
      <path
         style="fill:none;fill-opacity:1;stroke:#ebdfec;stroke-width:6;stroke-linecap:butt;stroke-linejoin:round;stroke-miterlimit:4;stroke-dasharray:none;stroke-opacity:1"
         d="m 1063,532.49996 h -21.1"
         id="path94704"
         sodipodi:nodetypes="cc" />
    </g>
    <g
       id="g94880"
       transform="rotate(180,959.9571,632.91168)">
      <path
         style="color:#000000;fill:#8e489b;stroke-width:12;stroke-linecap:round;-inkscape-stroke:none"
         d="m 1084.0002,541.69896 h -56"
         id="path94868" />
      <path
         style="color:#000000;fill:#8e489b;stroke-width:6;stroke-linecap:round;-inkscape-stroke:none"
         d="m 1069.9,538.49996 h -28"
         id="path94870" />
      <circle
         style="display:inline;fill:#8e489b;fill-opacity:1;stroke:none;stroke-width:12;stroke-linecap:round;stroke-linejoin:round;stroke-miterlimit:4;stroke-dasharray:none;stroke-dashoffset:0;stroke-opacity:1"
         id="circle94872"
         cx="538.5"
         cy="1073.8999"
         r="6"
         transform="matrix(0,1,1,0,0,0)" />
      <circle
         style="display:inline;fill:#ebdfec;fill-opacity:1;stroke:none;stroke-width:12;stroke-linecap:round;stroke-linejoin:round;stroke-miterlimit:4;stroke-dasharray:none;stroke-dashoffset:0;stroke-opacity:1"
         id="circle94874"
         cx="532.49994"
         cy="1041.9"
         r="6"
         transform="matrix(0,1,1,0,0,0)" />
      <path
         style="fill:none;fill-opacity:1;stroke:#8e489b;stroke-width:6;stroke-linecap:butt;stroke-linejoin:round;stroke-miterlimit:4;stroke-dasharray:none;stroke-opacity:1"
         d="M 1053.0002,538.49996 H 1069.9"
         id="path94876"
         sodipodi:nodetypes="cc" />
      <path
         style="fill:none;fill-opacity:1;stroke:#ebdfec;stroke-width:6;stroke-linecap:butt;stroke-linejoin:round;stroke-miterlimit:4;stroke-dasharray:none;stroke-opacity:1"
         d="m 1063,532.49996 h -21.1"
         id="path94878"
         sodipodi:nodetypes="cc" />
    </g>
  </g>
  <g
     inkscape:groupmode="layer"
     id="layer2"
     inkscape:label="connections"
     style="display:none">
    <g
       id="g92889-3"
       transform="rotate(-90,959.40353,538.94638)">
      <circle
         style="display:inline;fill:#8e489b;fill-opacity:1;stroke:none;stroke-width:12;stroke-linecap:round;stroke-linejoin:round;stroke-miterlimit:4;stroke-dasharray:none;stroke-dashoffset:0;stroke-opacity:1"
         id="circle6185-6"
         cx="538.5"
         cy="1069.8999"
         r="6"
         transform="matrix(0,1,1,0,0,0)" />
      <circle
         style="display:inline;fill:#ebdfec;fill-opacity:1;stroke:none;stroke-width:12;stroke-linecap:round;stroke-linejoin:round;stroke-miterlimit:4;stroke-dasharray:none;stroke-dashoffset:0;stroke-opacity:1"
         id="circle6187-7"
         cx="538.5"
         cy="1041.8999"
         r="6"
         transform="matrix(0,1,1,0,0,0)" />
      <rect
         style="fill:#ab7cb3;fill-opacity:1;stroke:none;stroke-width:6;stroke-linecap:round;stroke-linejoin:round;stroke-miterlimit:4;stroke-dasharray:none;stroke-opacity:1"
         id="rect76519-5"
         width="11.120649"
         height="16.384203"
         x="1047.8794"
         y="532.62115" />
      <path
         style="fill:none;fill-opacity:1;stroke:#8e489b;stroke-width:6;stroke-linecap:butt;stroke-linejoin:round;stroke-miterlimit:4;stroke-dasharray:none;stroke-opacity:1"
         d="m 1053.0002,550.49996 c 0,-3.64648 -0.306,-6 2.9999,-6 3.3059,0 2.9469,-1.76314 2.9999,-6 h 10.9"
         id="path55874-3"
         sodipodi:nodetypes="czcc" />
      <path
         style="fill:none;fill-opacity:1;stroke:#ebdfec;stroke-width:6;stroke-linecap:butt;stroke-linejoin:round;stroke-miterlimit:4;stroke-dasharray:none;stroke-opacity:1"
         d="m 1063,532.49996 h -9.9998 v 6 H 1041.9"
         id="path61822-5"
         sodipodi:nodetypes="ccc" />
    </g>
    <g
       id="g93115"
       transform="rotate(-90,863.53127,634.81864)">
      <circle
         style="display:inline;fill:#8e489b;fill-opacity:1;stroke:none;stroke-width:12;stroke-linecap:round;stroke-linejoin:round;stroke-miterlimit:4;stroke-dasharray:none;stroke-dashoffset:0;stroke-opacity:1"
         id="circle93105"
         cx="538.5"
         cy="1069.8999"
         r="6"
         transform="matrix(0,1,1,0,0,0)" />
      <circle
         style="display:inline;fill:#ebdfec;fill-opacity:1;stroke:none;stroke-width:12;stroke-linecap:round;stroke-linejoin:round;stroke-miterlimit:4;stroke-dasharray:none;stroke-dashoffset:0;stroke-opacity:1"
         id="circle93107"
         cx="538.5"
         cy="1041.8999"
         r="6"
         transform="matrix(0,1,1,0,0,0)" />
      <rect
         style="fill:#ab7cb3;fill-opacity:1;stroke:none;stroke-width:6;stroke-linecap:round;stroke-linejoin:round;stroke-miterlimit:4;stroke-dasharray:none;stroke-opacity:1"
         id="rect93109"
         width="11.120649"
         height="16.384203"
         x="1047.8794"
         y="532.62115" />
      <path
         style="fill:none;fill-opacity:1;stroke:#8e489b;stroke-width:6;stroke-linecap:butt;stroke-linejoin:round;stroke-miterlimit:4;stroke-dasharray:none;stroke-opacity:1"
         d="m 1053.0002,550.49996 c 0,-3.64648 -0.306,-6 2.9999,-6 3.3059,0 2.9469,-1.76314 2.9999,-6 h 10.9"
         id="path93111"
         sodipodi:nodetypes="czcc" />
      <path
         style="fill:none;fill-opacity:1;stroke:#ebdfec;stroke-width:6;stroke-linecap:butt;stroke-linejoin:round;stroke-miterlimit:4;stroke-dasharray:none;stroke-opacity:1"
         d="m 1063,532.49996 h -9.9998 v 6 H 1041.9"
         id="path93113"
         sodipodi:nodetypes="ccc" />
    </g>
  </g>
  <g
     inkscape:groupmode="layer"
     id="g93334"
     inkscape:label="connections copy"
     style="display:inline" />
</svg>
