<svg height="100" width="200" xmlns="http://www.w3.org/2000/svg" style="background-color:#fff;">
  <path style="text-indent:0;text-transform:none" d="M14 17v66h88V17H15zm2 2h84v53.4L80.75 51.32a1.02 1.02 0 00-.9-.31 1 1 0 00-.57.31l-15.06 16-21.47-24a1.02 1.02 0 00-.9-.31 1 1 0 00-.57.31L16 70.47zm49 12c-3.85 0-7 3.15-7 7s3.15 7 7 7 7-3.15 7-7-3.15-7-7-7zm-.5 2c.17-.02.33 0 .5 0 2.77 0 5 2.23 5 5s-2.23 5-5 5-5-2.23-5-5c0-2.6 1.97-4.75 4.5-5zM41.97 45.47L73.78 81H16v-7.66zm38.03 8l20 21.9V81H76.47l-10.9-12.19z" overflow="visible" color="#000"/>
  <path d="M133.15 7.59h41.45V92.4h-41.45z" fill="#ebdfec" stroke="#ab7cb3" stroke-width="1.34538" stroke-linejoin="round"/>
  <g transform="matrix(.22423 0 0 .22423 -18.39 -95.88)" fill="none" stroke="#000" stroke-width="6" stroke-linecap="round" stroke-linejoin="round">
    <circle cx="780" cy="555" r="9" fill-opacity=".9"/>
    <path d="M785.78 588.22L798 576l16.34 16.34"/>
    <path fill-opacity=".9" d="M714 528h107.81v84.08H714z"/>
    <path d="M722.27 591.73L750 564l38.84 38.84"/>
  </g>
  <g fill="none" stroke-width="6" stroke-linecap="round" stroke-linejoin="round" stroke="#000">
    <path d="M144.4 72.51h0m0-1.34h1.35m0-1.35h1.34m0-1.34h1.35m0-1.35h2.69m-1.35-1.35h0m1.35 2.7h1.34m0 1.34h1.35m0 1.35h1.34m0 1.34h1.35m0 1.35h1.34m0 1.34h1.35M157.85 71.17h0m1.35 0v-1.35m1.34 0v-1.34m1.35 1.34v1.35m1.34 0v1.34" stroke-width="1.34538"/>
    <path d="M155.84 62.42h1.34m1.35 1.35v1.34m-1.35 1.35h-1.34m-1.35-1.35v-1.34M141.7 58.39h24.18v18.85h-24.17z" fill-opacity=".9" stroke-width="1.34538"/>
  </g>
  <g fill="none" stroke="#000" stroke-width="6" stroke-linecap="round">
    <path d="M153.82 44.72v7.84" stroke-width="1.34538"/>
    <path d="M149.78 51l4.04 4.03 4.03-4.04" stroke-linejoin="round" stroke-width="1.34538"/>
  </g>
</svg>
