<svg height="100" width="200" viewBox="0 0 128 64" xmlns="http://www.w3.org/2000/svg" style="background-color:#fff">
  <path d="M61 8H51a1 1 0 00-1 1v3h-2V9a1 1 0 00-1-1H31a1 1 0 00-.9.55L28.39 12H23v-2h2V8h-6v2h2v2h-4a1 1 0 00-1 1v3.9L14.18 26H9a1 1 0 00-.99.86l-2 14L6 41v3H3a1 1 0 00-1 1v4a1 1 0 001 1h2.61l-1.56 4.68A1 1 0 005 56h6a1 1 0 001-1v-8.13l3.37 2.25A5 5 0 1024.9 52h7.2a5 5 0 009.9-1 4.93 4.93 0 00-.3-1.65l4.3-2.58V51a1 1 0 001 1h14a1 1 0 001-1V9a1 1 0 00-1-1zM6 48H4v-2h2zm25.62-38H46v2H30.62zm-13.8 8h5.96l-1.6 8h-5.96zM9.87 28H40v2H9.58zm14.35-2l1.6-8H30v8zM32 26v-8h4v8zM9.3 32H40v3H8.87zm-.71 5H40v3H8.15zM10 54H6.39l1.56-4.68A1 1 0 008 49v-3h2zm10 0a3 3 0 01-3-3 2.94 2.94 0 01.1-.73l2.34 1.56A1 1 0 0020 52h2.82A3 3 0 0120 54zm.3-4l-2.1-1.4a2.97 2.97 0 014.62 1.4zM37 54a3 3 0 01-2.82-2H37a1 1 0 00.52-.14l2.42-1.46A3 3 0 0137 54zm-2.82-4a2.97 2.97 0 014.72-1.3L36.72 50zm6.49-2.37A4.98 4.98 0 0032.1 50h-7.2a5 5 0 00-8.42-2.55L14.3 46h29.09zM60 50H48v-4h12zm0-6H8v-2h52zm-18-4V22h6v18zm8 0V22h6v18zm10 0h-2v-3h2zm0-5h-2v-3h2zm0-5h-2v-2h2zm0-4h-2v-5a1 1 0 00-1-1H41a1 1 0 00-1 1v5h-2v-8h22zm0-10H18v-2h42zm0-4h-8v-2h8z"/>
  <path d="M44 36h2v2h-2zM52 36h2v2h-2zM44 32h2v2h-2zM52 32h2v2h-2z"/>
  <path d="M70 41.3l4.24 2.5h8.68l4.82-2.5v2.47h14.7v-2.46l4.83 2.49h8.68l4.24-2.5" fill="none" stroke="#000" stroke-width=".48" stroke-linecap="round" stroke-linejoin="round"/>
  <circle cx="74.4" cy="43.78" fill="#fff" stroke="#000" stroke-width=".48" stroke-linecap="round" stroke-linejoin="round" r="2.45"/>
  <circle cx="82.8" cy="43.78" fill="#fff" stroke="#000" stroke-width=".48" stroke-linecap="round" stroke-linejoin="round" r="2.45"/>
  <path d="M67.51 41.3l-.04-9.41a.5.5 0 01.5-.42h.48c.26-1.28.75-2.23.8-3.28v-2.26h37.05l.7-1.35h7.3v-.99h-.98v-.98h2.95v.98h-.98v.99h1.97c.27 0 .49.22.49.49v1.92l.9 4.48h2.55a.5.5 0 01.48.42l.99 6.89v2.53z" fill="none" stroke="#000" stroke-width=".48" stroke-linecap="round" stroke-linejoin="round"/>
  <path d="M67.51 40.76H66v2.07h1.97v-1.5" fill="none" stroke="#000" stroke-width=".48" stroke-linecap="round" stroke-linejoin="round"/>
  <path d="M67.96 42.83l-.88 2.77h2.91v-4.3" fill="none" stroke="#000" stroke-width=".48" stroke-linecap="round" stroke-linejoin="round"/>
  <circle cx="-115.78" cy="43.78" transform="scale(-1 1)" fill="#fff" stroke="#000" stroke-width=".48" stroke-linecap="round" stroke-linejoin="round" r="2.45"/>
  <circle cx="-107.39" cy="43.78" transform="scale(-1 1)" fill="#fff" stroke="#000" stroke-width=".48" stroke-linecap="round" stroke-linejoin="round" r="2.45"/>
  <path d="M116.85 27.53h-2.93l.79 3.94h2.93zm-3.15 3.94l-.79-3.94h-2.06v3.94zm-3.83 0v-3.94h-1.97v3.94zm-4.93 6.88V29.5H102v8.85zm-3.94 0V29.5h-2.95v8.85zM122.67 40.76h1.52v2.07h-1.96v-1.5M122.23 42.83l.88 2.77h-2.92v-4.3M107.06 24.59l-2.08 3.6H69.24" fill="none" stroke="#000" stroke-width=".48" stroke-linecap="round" stroke-linejoin="round"/>
</svg>
